%YAML 1.1
%TAG !u! tag:unity3d.com,2011:
--- !u!74 &7400000
AnimationClip:
  m_ObjectHideFlags: 0
  m_CorrespondingSourceObject: {fileID: 0}
  m_PrefabInstance: {fileID: 0}
  m_PrefabAsset: {fileID: 0}
  m_Name: PL_Idle_Right
  serializedVersion: 6
  m_Legacy: 0
  m_Compressed: 0
  m_UseHighQualityCurve: 1
  m_RotationCurves: []
  m_CompressedRotationCurves: []
  m_EulerCurves: []
  m_PositionCurves: []
  m_ScaleCurves: []
  m_FloatCurves: []
  m_PPtrCurves:
  - curve:
    - time: 0
      value: {fileID: 21300000, guid: c7f8978e52336cf439b7d42cd27a1abc, type: 3}
    - time: 0.041666668
      value: {fileID: 21300000, guid: d306f1df50909c54396f4fa211a39ea1, type: 3}
    - time: 0.083333336
      value: {fileID: 21300000, guid: 60f7f844944b752478615da6d74c1eca, type: 3}
    - time: 0.125
      value: {fileID: 21300000, guid: f5a2261a1983e8542ac2ebb26dc3b662, type: 3}
    - time: 0.16666667
      value: {fileID: 21300000, guid: 6ac75d1e887a81e458978d180447900d, type: 3}
    - time: 0.20833333
      value: {fileID: 21300000, guid: a0be586ce5e4cd14d8c3a8f5c408c394, type: 3}
    - time: 0.25
      value: {fileID: 21300000, guid: 819fad8538d94b44591d9c590b32cae3, type: 3}
    - time: 0.29166666
      value: {fileID: 21300000, guid: 182d354b994339d43aa6a682b328b3d4, type: 3}
    - time: 0.33333334
      value: {fileID: 21300000, guid: c9b254a952c9f9741bcdcc55f2c12754, type: 3}
    - time: 0.375
      value: {fileID: 21300000, guid: 3e5f7ee9c1201494199a936869b361b2, type: 3}
    - time: 0.41666666
      value: {fileID: 21300000, guid: 005cd1d1f1bdb1b4c8c1903917b21b53, type: 3}
    - time: 0.45833334
      value: {fileID: 21300000, guid: 44cf9ccfa627b1241b14c6a7d9d0e71b, type: 3}
    - time: 0.5
      value: {fileID: 21300000, guid: fdf2f8636ca49774aa22ac3492e94ada, type: 3}
    - time: 0.5416667
      value: {fileID: 21300000, guid: 8845363aba90eae40bb6d73a913a1c27, type: 3}
    - time: 0.5833333
      value: {fileID: 21300000, guid: d0d504a210f03e641b412f25e59e4a94, type: 3}
    - time: 0.625
      value: {fileID: 21300000, guid: 2c3b50461c12b90478860fe2c3a46473, type: 3}
    - time: 0.6666667
      value: {fileID: 21300000, guid: 69696f1ebbccf204697b8726096d88df, type: 3}
    - time: 0.7083333
      value: {fileID: 21300000, guid: 046456aaa85f81a44b104b6567b65bdf, type: 3}
    - time: 0.75
      value: {fileID: 21300000, guid: c3bfba55128ec9646b0f3d8f60736cd1, type: 3}
    - time: 0.7916667
      value: {fileID: 21300000, guid: 9923d4cbc5c88724f833f0d851382247, type: 3}
    - time: 0.8333333
      value: {fileID: 21300000, guid: 4a6d3b48861a07f419ed1e3fcb20f749, type: 3}
    - time: 0.875
      value: {fileID: 21300000, guid: 45b1bac18f662c948aa772def54f665c, type: 3}
    - time: 0.9166667
      value: {fileID: 21300000, guid: 1ac21ae83d1802240aee30d28a90c3a5, type: 3}
    - time: 0.9583333
      value: {fileID: 21300000, guid: 6c7a5ea65328af042b4aa1c51f8f7391, type: 3}
    - time: 1
      value: {fileID: 21300000, guid: 721ce510e0de9924d9fd8692520aaed7, type: 3}
    - time: 1.0416666
      value: {fileID: 21300000, guid: 6b5459c29c974a54183a1e0fadb1aca4, type: 3}
    - time: 1.0833334
      value: {fileID: 21300000, guid: 1a6182494a5de9c4c8cfe2ec7f8f9a06, type: 3}
    - time: 1.125
      value: {fileID: 21300000, guid: fedbc28ca1d2c47439ded47ffe9275cb, type: 3}
    - time: 1.1666666
      value: {fileID: 21300000, guid: 401172e219780664cb3820ebe3fe3a74, type: 3}
    - time: 1.2083334
      value: {fileID: 21300000, guid: 811b41f0bef98b54aa641e354be49a23, type: 3}
    attribute: m_Sprite
    path: 
    classID: 212
    script: {fileID: 0}
  m_SampleRate: 24
  m_WrapMode: 0
  m_Bounds:
    m_Center: {x: 0, y: 0, z: 0}
    m_Extent: {x: 0, y: 0, z: 0}
  m_ClipBindingConstant:
    genericBindings:
    - serializedVersion: 2
      path: 0
      attribute: 0
      script: {fileID: 0}
      typeID: 212
      customType: 23
      isPPtrCurve: 1
    pptrCurveMapping:
    - {fileID: 21300000, guid: c7f8978e52336cf439b7d42cd27a1abc, type: 3}
    - {fileID: 21300000, guid: d306f1df50909c54396f4fa211a39ea1, type: 3}
    - {fileID: 21300000, guid: 60f7f844944b752478615da6d74c1eca, type: 3}
    - {fileID: 21300000, guid: f5a2261a1983e8542ac2ebb26dc3b662, type: 3}
    - {fileID: 21300000, guid: 6ac75d1e887a81e458978d180447900d, type: 3}
    - {fileID: 21300000, guid: a0be586ce5e4cd14d8c3a8f5c408c394, type: 3}
    - {fileID: 21300000, guid: 819fad8538d94b44591d9c590b32cae3, type: 3}
    - {fileID: 21300000, guid: 182d354b994339d43aa6a682b328b3d4, type: 3}
    - {fileID: 21300000, guid: c9b254a952c9f9741bcdcc55f2c12754, type: 3}
    - {fileID: 21300000, guid: 3e5f7ee9c1201494199a936869b361b2, type: 3}
    - {fileID: 21300000, guid: 005cd1d1f1bdb1b4c8c1903917b21b53, type: 3}
    - {fileID: 21300000, guid: 44cf9ccfa627b1241b14c6a7d9d0e71b, type: 3}
    - {fileID: 21300000, guid: fdf2f8636ca49774aa22ac3492e94ada, type: 3}
    - {fileID: 21300000, guid: 8845363aba90eae40bb6d73a913a1c27, type: 3}
    - {fileID: 21300000, guid: d0d504a210f03e641b412f25e59e4a94, type: 3}
    - {fileID: 21300000, guid: 2c3b50461c12b90478860fe2c3a46473, type: 3}
    - {fileID: 21300000, guid: 69696f1ebbccf204697b8726096d88df, type: 3}
    - {fileID: 21300000, guid: 046456aaa85f81a44b104b6567b65bdf, type: 3}
    - {fileID: 21300000, guid: c3bfba55128ec9646b0f3d8f60736cd1, type: 3}
    - {fileID: 21300000, guid: 9923d4cbc5c88724f833f0d851382247, type: 3}
    - {fileID: 21300000, guid: 4a6d3b48861a07f419ed1e3fcb20f749, type: 3}
    - {fileID: 21300000, guid: 45b1bac18f662c948aa772def54f665c, type: 3}
    - {fileID: 21300000, guid: 1ac21ae83d1802240aee30d28a90c3a5, type: 3}
    - {fileID: 21300000, guid: 6c7a5ea65328af042b4aa1c51f8f7391, type: 3}
    - {fileID: 21300000, guid: 721ce510e0de9924d9fd8692520aaed7, type: 3}
    - {fileID: 21300000, guid: 6b5459c29c974a54183a1e0fadb1aca4, type: 3}
    - {fileID: 21300000, guid: 1a6182494a5de9c4c8cfe2ec7f8f9a06, type: 3}
    - {fileID: 21300000, guid: fedbc28ca1d2c47439ded47ffe9275cb, type: 3}
    - {fileID: 21300000, guid: 401172e219780664cb3820ebe3fe3a74, type: 3}
    - {fileID: 21300000, guid: 811b41f0bef98b54aa641e354be49a23, type: 3}
  m_AnimationClipSettings:
    serializedVersion: 2
    m_AdditiveReferencePoseClip: {fileID: 0}
    m_AdditiveReferencePoseTime: 0
    m_StartTime: 0
    m_StopTime: 1.25
    m_OrientationOffsetY: 0
    m_Level: 0
    m_CycleOffset: 0
    m_HasAdditiveReferencePose: 0
    m_LoopTime: 1
    m_LoopBlend: 0
    m_LoopBlendOrientation: 0
    m_LoopBlendPositionY: 0
    m_LoopBlendPositionXZ: 0
    m_KeepOriginalOrientation: 0
    m_KeepOriginalPositionY: 1
    m_KeepOriginalPositionXZ: 0
    m_HeightFromFeet: 0
    m_Mirror: 0
  m_EditorCurves: []
  m_EulerEditorCurves: []
  m_HasGenericRootTransform: 0
  m_HasMotionFloatCurves: 0
  m_Events: []
