%YAML 1.1
%TAG !u! tag:unity3d.com,2011:
--- !u!74 &7400000
AnimationClip:
  m_ObjectHideFlags: 0
  m_CorrespondingSourceObject: {fileID: 0}
  m_PrefabInstance: {fileID: 0}
  m_PrefabAsset: {fileID: 0}
  m_Name: PL_Run_Back
  serializedVersion: 6
  m_Legacy: 0
  m_Compressed: 0
  m_UseHighQualityCurve: 1
  m_RotationCurves: []
  m_CompressedRotationCurves: []
  m_EulerCurves: []
  m_PositionCurves: []
  m_ScaleCurves: []
  m_FloatCurves: []
  m_PPtrCurves:
  - curve:
    - time: 0
      value: {fileID: 21300000, guid: 5a9c71939ccea614c99ac310f8646e5d, type: 3}
    - time: 0.041666668
      value: {fileID: 21300000, guid: dd6748800f0028645afdae393b71e254, type: 3}
    - time: 0.083333336
      value: {fileID: 21300000, guid: 121927675d9837a468b8868f5dadea33, type: 3}
    - time: 0.125
      value: {fileID: 21300000, guid: 22987b7936b7ebd41863a1862da3cc32, type: 3}
    - time: 0.16666667
      value: {fileID: 21300000, guid: 92bfe41bf12f90246b96d4bb7fea9354, type: 3}
    - time: 0.20833333
      value: {fileID: 21300000, guid: b0249e77ef9e9184d92f5f55df87b2e2, type: 3}
    - time: 0.25
      value: {fileID: 21300000, guid: dca00f80e91fd364098eeb5859b00652, type: 3}
    - time: 0.29166666
      value: {fileID: 21300000, guid: 5d195b18cda764a40be26f8b314f3636, type: 3}
    - time: 0.33333334
      value: {fileID: 21300000, guid: f9bb5f824536b314ab8ff97303953049, type: 3}
    - time: 0.375
      value: {fileID: 21300000, guid: 6a1b2ff202232a84c9901615c7db2ca1, type: 3}
    - time: 0.41666666
      value: {fileID: 21300000, guid: 82bcc161cc6e7994b925439e7f15a24b, type: 3}
    - time: 0.45833334
      value: {fileID: 21300000, guid: 18850015ca04d3146b1e6e6092760c22, type: 3}
    - time: 0.5
      value: {fileID: 21300000, guid: 18e3effbfbe1e6c41beb88b990c58cd8, type: 3}
    - time: 0.5416667
      value: {fileID: 21300000, guid: 34bb97f99c7952549b3f6aaad1329ec7, type: 3}
    - time: 0.5833333
      value: {fileID: 21300000, guid: 5556ae203d39c3d4282b1f25820b7b03, type: 3}
    attribute: m_Sprite
    path: 
    classID: 212
    script: {fileID: 0}
  m_SampleRate: 24
  m_WrapMode: 0
  m_Bounds:
    m_Center: {x: 0, y: 0, z: 0}
    m_Extent: {x: 0, y: 0, z: 0}
  m_ClipBindingConstant:
    genericBindings:
    - serializedVersion: 2
      path: 0
      attribute: 0
      script: {fileID: 0}
      typeID: 212
      customType: 23
      isPPtrCurve: 1
    pptrCurveMapping:
    - {fileID: 21300000, guid: 5a9c71939ccea614c99ac310f8646e5d, type: 3}
    - {fileID: 21300000, guid: dd6748800f0028645afdae393b71e254, type: 3}
    - {fileID: 21300000, guid: 121927675d9837a468b8868f5dadea33, type: 3}
    - {fileID: 21300000, guid: 22987b7936b7ebd41863a1862da3cc32, type: 3}
    - {fileID: 21300000, guid: 92bfe41bf12f90246b96d4bb7fea9354, type: 3}
    - {fileID: 21300000, guid: b0249e77ef9e9184d92f5f55df87b2e2, type: 3}
    - {fileID: 21300000, guid: dca00f80e91fd364098eeb5859b00652, type: 3}
    - {fileID: 21300000, guid: 5d195b18cda764a40be26f8b314f3636, type: 3}
    - {fileID: 21300000, guid: f9bb5f824536b314ab8ff97303953049, type: 3}
    - {fileID: 21300000, guid: 6a1b2ff202232a84c9901615c7db2ca1, type: 3}
    - {fileID: 21300000, guid: 82bcc161cc6e7994b925439e7f15a24b, type: 3}
    - {fileID: 21300000, guid: 18850015ca04d3146b1e6e6092760c22, type: 3}
    - {fileID: 21300000, guid: 18e3effbfbe1e6c41beb88b990c58cd8, type: 3}
    - {fileID: 21300000, guid: 34bb97f99c7952549b3f6aaad1329ec7, type: 3}
    - {fileID: 21300000, guid: 5556ae203d39c3d4282b1f25820b7b03, type: 3}
  m_AnimationClipSettings:
    serializedVersion: 2
    m_AdditiveReferencePoseClip: {fileID: 0}
    m_AdditiveReferencePoseTime: 0
    m_StartTime: 0
    m_StopTime: 0.625
    m_OrientationOffsetY: 0
    m_Level: 0
    m_CycleOffset: 0
    m_HasAdditiveReferencePose: 0
    m_LoopTime: 1
    m_LoopBlend: 0
    m_LoopBlendOrientation: 0
    m_LoopBlendPositionY: 0
    m_LoopBlendPositionXZ: 0
    m_KeepOriginalOrientation: 0
    m_KeepOriginalPositionY: 1
    m_KeepOriginalPositionXZ: 0
    m_HeightFromFeet: 0
    m_Mirror: 0
  m_EditorCurves: []
  m_EulerEditorCurves: []
  m_HasGenericRootTransform: 0
  m_HasMotionFloatCurves: 0
  m_Events: []
